<svg id="_16-2" data-name="16" xmlns="http://www.w3.org/2000/svg" xmlns:xlink="http://www.w3.org/1999/xlink" width="16" height="16" viewBox="0 0 16 16">
  <defs>
    <clipPath id="clip-path">
      <rect id="_16" data-name="16" width="16" height="16" fill="#bbb"/>
    </clipPath>
  </defs>
  <g id="Mask_Group_289" data-name="Mask Group 289" clip-path="url(#clip-path)">
    <g id="small-left" transform="translate(-3.298 -4.291)">
      <path id="Path_4926" data-name="Path 4926" d="M14.6,5.377,7.682,12.291,14.6,19.2" fill="none" stroke="#2e3a5b" stroke-linecap="round" stroke-linejoin="round" stroke-miterlimit="10" stroke-width="1.536"/>
    </g>
  </g>
</svg>
